%YAML 1.1
%TAG !u! tag:unity3d.com,2011:
--- !u!114 &11400000
MonoBehaviour:
  m_ObjectHideFlags: 0
  m_CorrespondingSourceObject: {fileID: 0}
  m_PrefabInstance: {fileID: 0}
  m_PrefabAsset: {fileID: 0}
  m_GameObject: {fileID: 0}
  m_Enabled: 1
  m_EditorHideFlags: 0
  m_Script: {fileID: 11500000, guid: 4279c65df6c215347a77e278ab22bc2f, type: 3}
  m_Name: exotic_matter
  m_EditorClassIdentifier: 
  resourceName: Exotic Matter
  description: {fileID: 4900000, guid: e936f69d94f2852449240a78ed267a00, type: 3}
  artwork: {fileID: 21300000, guid: ca3a9542c291a0540bde0c86b43477f6, type: 3}
  icon: {fileID: 21300000, guid: 38bfdeba4dcd21c428c794627726bdd2, type: 3}
  circleIcon: {fileID: 21300000, guid: d838ceb21679ba643bacddc4dc1d8957, type: 3}
