%YAML 1.1
%TAG !u! tag:unity3d.com,2011:
--- !u!1045 &1
EditorBuildSettings:
  m_ObjectHideFlags: 0
  serializedVersion: 2
  m_Scenes:
  - enabled: 1
    path: Assets/Scenes/MainMenu.unity
    guid: 2ab72a27491373145be0995bd8b26e31
  - enabled: 1
    path: Assets/Scenes/MainGame/GameScene.unity
    guid: 3ffe26d4167b43f45a44eb1b0c61110b
  m_configObjects: {}
