%YAML 1.1
%TAG !u! tag:unity3d.com,2011:
--- !u!114 &11400000
MonoBehaviour:
  m_ObjectHideFlags: 0
  m_CorrespondingSourceObject: {fileID: 0}
  m_PrefabInstance: {fileID: 0}
  m_PrefabAsset: {fileID: 0}
  m_GameObject: {fileID: 0}
  m_Enabled: 1
  m_EditorHideFlags: 0
  m_Script: {fileID: 11500000, guid: d249b9739bd648a4db8b8b207341a5b7, type: 3}
  m_Name: ballJump
  m_EditorClassIdentifier: 
  Source: {fileID: 0}
  Clip: {fileID: 8300000, guid: 3d6e325ff85ddcb4cafc2e8db08e6193, type: 3}
  Volume: 1
  Loop: 0
